…
iperf_data <- iperf_data %>%
  separate_longer_delim(line, delim = "\n") %>%
  separate_wider_regex(line, pattern) %>%
  type.convert(as.is = TRUE) %>%
  mutate(device = "MQP")

iperf_data
```

    ## # A tibble: 120 × 13
    ##       id start  stop unit  transfer transfer_unit bitrate bitrate_unit retry
    ##    <int> <dbl> <dbl> <chr>    <dbl> <chr>           <int> <chr>        <int>
    ##  1     5     0     1 sec       92.2 MBytes            773 Mbits/sec        0
    ##  2     5     1     2 sec       96.2 MBytes            807 Mbits/sec        0
    ##  3     5     2     3 sec       96.2 MBytes            807 Mbits/sec        0
    ##  4     5     3     4 sec       93.8 MBytes            786 Mbits/sec        0
    ##  5     5     4     5 sec       95   MBytes            797 Mbits/sec        0
    ##  6     5     5     6 sec       96.2 MBytes            807 Mbits/sec        0
    ##  7     5     6     7 sec       96.2 MBytes            807 Mbits/sec        0
    ##  8     5     7     8 sec       95   MBytes            797 Mbits/sec        0
    ##  9     5     8     9 sec       96.2 MBytes            807 Mbits/sec        0
    ## 10     5     9    10 sec       97.5 MBytes            818 Mbits/sec        0
    ## # ℹ 110 more rows
    ## # ℹ 4 more variables: cwnd <int>, cwnd_unit <chr>, setup <chr>, device <chr>
…
